{
  "$schema": "https://developer.microsoft.com/json-schemas/spfx-build/package-solution.schema.json",
  "solution": {
    "name": "fph-job-vacancy-client-side-solution",
    "id": "eef06bd0-83d0-4836-bddd-1268421a9403",
    "version": "1.0.0.0",
    "includeClientSideAssets": true,
    "skipFeatureDeployment": true,
    "isDomainIsolated": false
  },
  "paths": {
    "zippedPackage": "solution/fph-job-vacancy.sppkg"
  }
}
